^C:\PROJECTS\GAME1007_SDL_TEMPLATE32\GAME1007_SDL_TEMPLATE32\SDL_TEMPLATE32\MAIN.CPP
/c /IC:\PROJECTS\GAME1007_SDL_TEMPLATE32\GAME1007_SDL_TEMPLATE32\\SDL\SDL2\INCLUDE /IC:\PROJECTS\GAME1007_SDL_TEMPLATE32\GAME1007_SDL_TEMPLATE32\\SDL\SDL2_IMAGE\INCLUDE /ZI /JMC /nologo /W3 /WX- /diagnostics:classic /sdl /Od /Oy- /D _MBCS /Gm- /EHsc /RTC1 /MDd /GS /fp:precise /permissive- /Zc:wchar_t /Zc:forScope /Zc:inline /Fo"DEBUG\\" /Fd"DEBUG\VC141.PDB" /Gd /TP /analyze- /FC C:\PROJECTS\GAME1007_SDL_TEMPLATE32\GAME1007_SDL_TEMPLATE32\SDL_TEMPLATE32\MAIN.CPP
^C:\USERS\DIO\DESKTOP\FUNDEMENTAL\GAME1007-SDL_TEMPLATE-MASTER\GAME1007-SDL_TEMPLATE-MASTER\GAME1007_SDL_TEMPLATE32\SDL_TEMPLATE32\GAME.CPP
/c /I"C:\USERS\DIO\DESKTOP\FUNDEMENTAL\GAME1007-SDL_TEMPLATE-MASTER\GAME1007-SDL_TEMPLATE-MASTER\GAME1007_SDL_TEMPLATE32\\SDL\SDL2\INCLUDE" /I"C:\USERS\DIO\DESKTOP\FUNDEMENTAL\GAME1007-SDL_TEMPLATE-MASTER\GAME1007-SDL_TEMPLATE-MASTER\GAME1007_SDL_TEMPLATE32\\SDL\SDL2_IMAGE\INCLUDE" /ZI /JMC /nologo /W3 /WX- /diagnostics:column /sdl /Od /Oy- /D _MBCS /Gm- /EHsc /RTC1 /MDd /GS /fp:precise /permissive- /Zc:wchar_t /Zc:forScope /Zc:inline /Fo"DEBUG\\" /Fd"DEBUG\VC142.PDB" /Gd /TP /analyze- /FC C:\USERS\DIO\DESKTOP\FUNDEMENTAL\GAME1007-SDL_TEMPLATE-MASTER\GAME1007-SDL_TEMPLATE-MASTER\GAME1007_SDL_TEMPLATE32\SDL_TEMPLATE32\GAME.CPP
^C:\USERS\DIO\DESKTOP\FUNDEMENTAL\GAME1007-SDL_TEMPLATE-MASTER\GAME1007-SDL_TEMPLATE-MASTER\GAME1007_SDL_TEMPLATE32\SDL_TEMPLATE32\MAIN.CPP
/c /I"C:\USERS\DIO\DESKTOP\FUNDEMENTAL\GAME1007-SDL_TEMPLATE-MASTER\GAME1007-SDL_TEMPLATE-MASTER\GAME1007_SDL_TEMPLATE32\\SDL\SDL2\INCLUDE" /I"C:\USERS\DIO\DESKTOP\FUNDEMENTAL\GAME1007-SDL_TEMPLATE-MASTER\GAME1007-SDL_TEMPLATE-MASTER\GAME1007_SDL_TEMPLATE32\\SDL\SDL2_IMAGE\INCLUDE" /ZI /JMC /nologo /W3 /WX- /diagnostics:column /sdl /Od /Oy- /D _MBCS /Gm- /EHsc /RTC1 /MDd /GS /fp:precise /permissive- /Zc:wchar_t /Zc:forScope /Zc:inline /Fo"DEBUG\\" /Fd"DEBUG\VC142.PDB" /Gd /TP /analyze- /FC C:\USERS\DIO\DESKTOP\FUNDEMENTAL\GAME1007-SDL_TEMPLATE-MASTER\GAME1007-SDL_TEMPLATE-MASTER\GAME1007_SDL_TEMPLATE32\SDL_TEMPLATE32\MAIN.CPP
^C:\USERS\DIO\DESKTOP\FUNDEMENTAL\GAME1007-SDL_TEMPLATE-MASTER\GAME1007-SDL_TEMPLATE-MASTER\GAME1007_SDL_TEMPLATE32\SDL_TEMPLATE32\SPRITE.CPP
/c /I"C:\USERS\DIO\DESKTOP\FUNDEMENTAL\GAME1007-SDL_TEMPLATE-MASTER\GAME1007-SDL_TEMPLATE-MASTER\GAME1007_SDL_TEMPLATE32\\SDL\SDL2\INCLUDE" /I"C:\USERS\DIO\DESKTOP\FUNDEMENTAL\GAME1007-SDL_TEMPLATE-MASTER\GAME1007-SDL_TEMPLATE-MASTER\GAME1007_SDL_TEMPLATE32\\SDL\SDL2_IMAGE\INCLUDE" /ZI /JMC /nologo /W3 /WX- /diagnostics:column /sdl /Od /Oy- /D _MBCS /Gm- /EHsc /RTC1 /MDd /GS /fp:precise /permissive- /Zc:wchar_t /Zc:forScope /Zc:inline /Fo"DEBUG\\" /Fd"DEBUG\VC142.PDB" /Gd /TP /analyze- /FC C:\USERS\DIO\DESKTOP\FUNDEMENTAL\GAME1007-SDL_TEMPLATE-MASTER\GAME1007-SDL_TEMPLATE-MASTER\GAME1007_SDL_TEMPLATE32\SDL_TEMPLATE32\SPRITE.CPP
