^C:\PROJECTS\GAME1007_SDL_TEMPLATE32\GAME1007_SDL_TEMPLATE32\SDL_TEMPLATE32\MAIN.CPP
C:\PROJECTS\GAME1007_SDL_TEMPLATE32\GAME1007_SDL_TEMPLATE32\SDL_TEMPLATE32\DEBUG\VC142.PDB
C:\PROJECTS\GAME1007_SDL_TEMPLATE32\GAME1007_SDL_TEMPLATE32\SDL_TEMPLATE32\DEBUG\VC142.IDB
C:\PROJECTS\GAME1007_SDL_TEMPLATE32\GAME1007_SDL_TEMPLATE32\SDL_TEMPLATE32\DEBUG\MAIN.OBJ
C:\PROJECTS\GAME1007_SDL_TEMPLATE32\GAME1007_SDL_TEMPLATE32\SDL_TEMPLATE32\DEBUG\VC141.PDB
C:\PROJECTS\GAME1007_SDL_TEMPLATE32\GAME1007_SDL_TEMPLATE32\SDL_TEMPLATE32\DEBUG\VC141.IDB
^C:\USERS\DIO\DESKTOP\FUNDEMENTAL\GAME1007-SDL_TEMPLATE-MASTER\GAME1007-SDL_TEMPLATE-MASTER\GAME1007_SDL_TEMPLATE32\SDL_TEMPLATE32\GAME.CPP|C:\USERS\DIO\DESKTOP\FUNDEMENTAL\GAME1007-SDL_TEMPLATE-MASTER\GAME1007-SDL_TEMPLATE-MASTER\GAME1007_SDL_TEMPLATE32\SDL_TEMPLATE32\MAIN.CPP|C:\USERS\DIO\DESKTOP\FUNDEMENTAL\GAME1007-SDL_TEMPLATE-MASTER\GAME1007-SDL_TEMPLATE-MASTER\GAME1007_SDL_TEMPLATE32\SDL_TEMPLATE32\SPRITE.CPP
C:\USERS\DIO\DESKTOP\FUNDEMENTAL\GAME1007-SDL_TEMPLATE-MASTER\GAME1007-SDL_TEMPLATE-MASTER\GAME1007_SDL_TEMPLATE32\SDL_TEMPLATE32\DEBUG\VC142.PDB
C:\USERS\DIO\DESKTOP\FUNDEMENTAL\GAME1007-SDL_TEMPLATE-MASTER\GAME1007-SDL_TEMPLATE-MASTER\GAME1007_SDL_TEMPLATE32\SDL_TEMPLATE32\DEBUG\VC142.IDB
C:\USERS\DIO\DESKTOP\FUNDEMENTAL\GAME1007-SDL_TEMPLATE-MASTER\GAME1007-SDL_TEMPLATE-MASTER\GAME1007_SDL_TEMPLATE32\SDL_TEMPLATE32\DEBUG\SPRITE.OBJ
C:\USERS\DIO\DESKTOP\FUNDEMENTAL\GAME1007-SDL_TEMPLATE-MASTER\GAME1007-SDL_TEMPLATE-MASTER\GAME1007_SDL_TEMPLATE32\SDL_TEMPLATE32\DEBUG\MAIN.OBJ
C:\USERS\DIO\DESKTOP\FUNDEMENTAL\GAME1007-SDL_TEMPLATE-MASTER\GAME1007-SDL_TEMPLATE-MASTER\GAME1007_SDL_TEMPLATE32\SDL_TEMPLATE32\DEBUG\GAME.OBJ
^C:\USERS\DIO\DESKTOP\FUNDEMENTAL\GAME1007-SDL_TEMPLATE-MASTER\GAME1007-SDL_TEMPLATE-MASTER\GAME1007_SDL_TEMPLATE32\SDL_TEMPLATE32\GAME.CPP
C:\USERS\DIO\DESKTOP\FUNDEMENTAL\GAME1007-SDL_TEMPLATE-MASTER\GAME1007-SDL_TEMPLATE-MASTER\GAME1007_SDL_TEMPLATE32\SDL_TEMPLATE32\DEBUG\VC142.PDB
^C:\USERS\DIO\DESKTOP\FUNDEMENTAL\GAME1007-SDL_TEMPLATE-MASTER\GAME1007-SDL_TEMPLATE-MASTER\GAME1007_SDL_TEMPLATE32\SDL_TEMPLATE32\MAIN.CPP
C:\USERS\DIO\DESKTOP\FUNDEMENTAL\GAME1007-SDL_TEMPLATE-MASTER\GAME1007-SDL_TEMPLATE-MASTER\GAME1007_SDL_TEMPLATE32\SDL_TEMPLATE32\DEBUG\VC142.PDB
^C:\USERS\DIO\DESKTOP\FUNDEMENTAL\GAME1007-SDL_TEMPLATE-MASTER\GAME1007-SDL_TEMPLATE-MASTER\GAME1007_SDL_TEMPLATE32\SDL_TEMPLATE32\SPRITE.CPP
C:\USERS\DIO\DESKTOP\FUNDEMENTAL\GAME1007-SDL_TEMPLATE-MASTER\GAME1007-SDL_TEMPLATE-MASTER\GAME1007_SDL_TEMPLATE32\SDL_TEMPLATE32\DEBUG\VC142.PDB
